1026;14;201;4
1027;14;202;0
1028;14;203;0
1029;14;204;0
1030;14;205;NULL
1031;15;201;5
1032;15;202;4
1033;15;203;NULL
1034;15;204;2
1035;15;205;1
1036;17;201;0
1037;17;202;0
1038;17;203;NULL
1039;17;204;NULL
1040;17;205;NULL
1041;20;201;3
1042;20;202;1
1043;20;203;NULL
1044;20;204;4
1045;20;205;0
1046;22;201;3
1047;22;202;4
1048;22;203;NULL
1049;22;204;5
1050;22;205;5
1051;23;201;2
1052;23;202;3
1053;23;203;1
1054;23;204;5
1055;23;205;NULL
1056;24;201;1
1057;24;202;NULL
1058;24;203;3
1059;24;204;NULL
1060;24;205;4
1061;26;201;4
1062;26;202;NULL
1063;26;203;NULL
1064;26;204;NULL
1065;26;205;NULL
